// Jest Snapshot v1, https://goo.gl/fbAQLP

exports[`List page renders the incident list when data received 1`] = `
<div
  class="container gl-pt-5"
>
  <div>
    <gl-status-stub
      incidents="[object Object],[object Object]"
    />
     
    <div
      class="gl-display-flex gl-justify-content-space-between gl-align-items-center"
    >
      <h2
        class="gl-mb-3"
      >
        Incidents
      </h2>
       
      <gl-search-box-by-type-stub
        clearbuttontitle="Clear"
        data-qa-selector="incident-list-search"
        value=""
      />
    </div>
     
    <div
      class="gl-display-grid incident-list gl-mt-5"
      data-qa-selector="incident-list"
    >
      <gl-list-incident-stub
        data-qa-selector="incident"
        incident="[object Object]"
      />
      <gl-list-incident-stub
        data-qa-selector="incident"
        incident="[object Object]"
      />
    </div>
     
    <!---->
  </div>
</div>
`;
